{
	"data": [
		{
			"id": "1",
			"profile": "Test Profile",
			"expense_acc": "EST-0001",
			"vendor_name": "Jane Doe",
			"frequency": "Every Week",
			"LED": "2018-07-18",
			"NED": "2018-07-25",
			"status": "ACTIVE",
			"amount": "100.00"
		}
	]
}